{
  "ID":"MAIN",
  "ACTIVE":"YES",
  "WORKFLOW":
  [
    {
      "ID": "INIT",
      "ACTIVE": "YES",
      "EXEC":
      {
        "JOB":"INIT"
      },
      "NEXT":
      {
        "ANY":"GO_TO_GOOGLE"
      },
      "COMMENT":"START"
    },
    {
      "ID": "GO_TO_GOOGLE",
      "ACTIVE": "YES",
      "EXEC":
      {
        "JOB":"WEB",
        "ACTION":"URL",
        "DETAIL":
        {
          "SERVICE":"web_service_1",
          "TIMEOUT": "5000",
          "XPATH": "http://www.google.com",
          "VARIABLE": "GO_TO_GOOGLE"
        }
      },
      "NEXT":
      {
        "ANY":"FILL_GOOGLE"
      },
      "COMMENT":"Test connect to google"
    },
    {
      "ID": "FILL_GOOGLE",
      "ACTIVE": "YES",
      "EXEC":
      {
        "JOB":"WEB",
        "ACTION":"FILL",
        "DETAIL":
        {
          "SERVICE":"web_service_1",
          "TIMEOUT": "5000",
          "XPATH": "//input[@title='Rechercher']",
          "VALUE":"%%e_IN_1_%%",
          "VARIABLE": "FILL_GOOGLE"
        }
      },
      "NEXT":
      {
        "ANY":"CLICK_GOOGLE"
      },
      "COMMENT":"Test connect to google"
    },
    {
      "ID": "CLICK_GOOGLE",
      "ACTIVE": "YES",
      "EXEC":
      {
        "JOB":"WEB",
        "ACTION":"FILL",
        "DETAIL":
        {
          "SERVICE":"web_service_1",
          "TIMEOUT": "5000",
          "XPATH": "(//input[@value='Recherche Google'])[2]",
          "VARIABLE": "CLICK_GOOGLE"
        }
      },
      "NEXT":
      {
        "SUCCESS":"END_OK",
        "ERROR":"END_KO"
      },
      "COMMENT":"Test connect to google"
    },
    {
      "ID": "END_OK",
      "EXEC":
      {
        "JOB":"END_OK"
      },
      "ACTIVE": "YES",
      "COMMENT":"OK"
    },
    {
      "ID": "END_KO",
      "EXEC":
      {
        "JOB":"END_OK"
      },
      "ACTIVE": "YES",
      "COMMENT":"KO"
    }
  ]
}
